…
### *4. Raspagem dos dados de parte*

Após salvar em disco o resultado da requisição para a aba relativa às
partes, foi criada a função `ler_aba_partes` que, recebendo o número do
incidente, localiza o arquivo adequado e realiza a leitura.

Como os dados são bem estruturados no arquivo `html`, conseguimos montar
uma tabela contendo a natureza de cada uma das partes (requerente,
requerida/o, interessada/o, *amicus curiae*) e seus respectivos
representantes.

    #> # A tibble: 22 x 3
    #>    incidente tipo  nome                                                         
    #>    <chr>     <chr> <chr>                                                        
    #>  1 5833114   REQTE PARTIDO SOCIALISMO E LIBERDADE (P-SOL)                       
    #>  2 5833114   ADV   ANDRE BRANDAO HENRIQUES MAIMONI (29498/DF, 7040/O/MT) E OUTR~
    #>  3 5833114   INTDO GOVERNADOR DO ESTADO DO RIO DE JANEIRO                       
    #>  4 5833114   PROC  PROCURADOR-GERAL DO ESTADO DO RIO DE JANEIRO                 
    #>  5 5833114   INTDO ASSEMBLEIA LEGISLATIVA DO ESTADO DO RIO DE JANEIRO           
    #>  6 5833114   ADV   SEM REPRESENTAÇÃO NOS AUTOS                                  
    #>  7 5833114   INTDO SINDICATO DOS SERVIDORES DA CARREIRA SOCIOEDUCATIVA DO ESTAD~
    #>  8 5833114   ADV   RENATA MAIA SERRA (137788/RJ)                                
    #>  9 5833114   ADV   NATALIE AFONSO TOLEDO (196254/RJ)                            
    #> 10 5833114   AM    DEFENSORIA PÚBLICA DO ESTADO DO RIO DE JANEIRO               
    #> # ... with 12 more rows

### *5. Raspagem dos dados de parte*

Procedimento semelhante é feito para os andamentos. Foi criada a função
`ler_aba_andamento` que, recebendo o número do incidente, irá buscar o
arquivo já salvo em disco.

Será lida a data e o nome de cada andamento e montada uma tabela
estruturada com essas informações, sempre indexidadas com o número do
incidente:

    #> # A tibble: 36 x 3
    #>    incidente data       andamento                 
    #>    <chr>     <date>     <chr>                     
    #>  1 5833114   2020-09-10 Publicação, DJE           
    #>  2 5833114   2020-09-09 Conclusos ao(à) Relator(a)
    #>  3 5833114   2020-09-09 Certidão                  
    #>  4 5833114   2020-09-09 Deferido                  
    #>  5 5833114   2020-08-26 Petição                   
    #>  6 5833114   2020-07-28 Publicação, DJE           
    #>  7 5833114   2020-07-24 Conclusos ao(à) Relator(a)
    #>  8 5833114   2020-07-24 Certidão                  
    #>  9 5833114   2020-07-24 Deferido                  
    #> 10 5833114   2020-07-17 Conclusos ao(à) Relator(a)
    #> # ... with 26 more rows
…
